Exploring the BRFSS data
…
Extracting the required variables for our study in another dataframe and omitting the NA values.

mentalhealth <- brfss2013 %>% 
  select(menthlth,employ1,income2) %>% na.omit()

Now, let see the general distribution of mental health across the survey population. Variable menthlth indicates the number of days mental health of a person is not good. The higher value indicates poor mental health.

mentalhealth %>%
  group_by(menthlth) %>% 
  summarise(count = n())

## `summarise()` ungrouping output (override with `.groups` argument)

## # A tibble: 32 x 2
##    menthlth  count
##       <int>  <int>
##  1        0 282939
##  2        1  13401
##  3        2  20847
##  4        3  12061
##  5        4   5836
##  6        5  14823
##  7        6   1608
##  8        7   5522
##  9        8   1070
## 10        9    176
## #  with 22 more rows
…
So those who are unable to work have a higher proportion among responders who have more bad mental health days.

mentalhealth %>% 
  group_by(employ1, menthlth) %>% 
  summarise(count = n())

## `summarise()` regrouping output by 'employ1' (override with `.groups` argument)

## # A tibble: 249 x 3
## # Groups:   employ1 [8]
##    employ1            menthlth  count
##    <fct>                 <int>  <int>
##  1 Employed for wages        0 125372
##  2 Employed for wages        1   7379
##  3 Employed for wages        2  10889
##  4 Employed for wages        3   5857
##  5 Employed for wages        4   2848
##  6 Employed for wages        5   7329
##  7 Employed for wages        6    692
##  8 Employed for wages        7   2505
##  9 Employed for wages        8    442
## 10 Employed for wages        9     68
## #  with 239 more rows
…
